(module 1pin_2.7 (layer F.Cu) (tedit 5C98A5CE)
  (descr "module 1 pin (ou trou mecanique de percage)")
  (tags DEV)
  (fp_text reference W114 (at -0.011 -0.0365) (layer F.SilkS)
    (effects (font (size 0.4 0.4) (thickness 0.1)))
  )
  (fp_text value Hole (at 0 3.048) (layer F.Fab)
    (effects (font (size 0.4 0.4) (thickness 0.1)))
  )
  (fp_circle (center 0 0) (end 0 -2.413) (layer F.SilkS) (width 0.15))
  (fp_circle (center 0 0) (end 2.4 0) (layer F.CrtYd) (width 0.15))
  (fp_circle (center 0 0) (end 2.4 0) (layer B.CrtYd) (width 0.15))
  (pad 1 thru_hole circle (at 0 0) (size 4.2 4.2) (drill 2.7) (layers *.Cu *.Mask F.SilkS))
)
