(module A97943DKR-ND (layer F.Cu) (tedit 5C75265F)
  (fp_text reference U501 (at 0 6.985) (layer F.SilkS)
    (effects (font (size 0.4 0.4) (thickness 0.1)))
  )
  (fp_text value SFP+ (at 4.85 -1.575) (layer F.SilkS)
    (effects (font (size 0.4 0.4) (thickness 0.1)))
  )
  (fp_line (start 3.99 -4.837) (end 3.99 -3.78) (layer F.SilkS) (width 0.15))
  (fp_line (start 3.99 -3.78) (end 3.85 -3.78) (layer F.SilkS) (width 0.15))
  (fp_line (start 3.85 1.98) (end 4.39 1.98) (layer F.SilkS) (width 0.15))
  (fp_line (start 4.39 1.98) (end 4.39 3.418) (layer F.SilkS) (width 0.15))
  (fp_line (start 3.85 -3.78) (end 3.85 1.98) (layer F.SilkS) (width 0.15))
  (fp_line (start 4.39 3.44) (end 5.75 3.44) (layer F.SilkS) (width 0.15))
  (fp_line (start 5.75 3.44) (end 5.75 -4.84) (layer F.SilkS) (width 0.15))
  (fp_line (start 5.75 -4.84) (end 3.99 -4.84) (layer F.SilkS) (width 0.15))
  (fp_line (start -3.85 1.98) (end -3.99 1.98) (layer F.SilkS) (width 0.15))
  (fp_line (start -3.99 1.98) (end -3.99 3.418) (layer F.SilkS) (width 0.15))
  (fp_line (start -3.85 -3.694) (end -4.39 -3.694) (layer F.SilkS) (width 0.15))
  (fp_line (start -4.39 -3.694) (end -4.39 -4.837) (layer F.SilkS) (width 0.15))
  (fp_line (start -5.65 3.44) (end -3.99 3.44) (layer F.SilkS) (width 0.15))
  (fp_line (start -3.85 1.98) (end -3.85 -3.694) (layer F.SilkS) (width 0.15))
  (fp_line (start -4.39 -4.84) (end -5.65 -4.84) (layer F.SilkS) (width 0.15))
  (fp_line (start -5.65 -4.84) (end -5.65 3.44) (layer F.SilkS) (width 0.15))
  (pad 11 smd rect (at 3.2 -5) (size 0.5 2) (layers F.Cu F.Paste F.Mask))
  (pad 12 smd rect (at 2.4 -5) (size 0.5 2) (layers F.Cu F.Paste F.Mask))
  (pad 13 smd rect (at 1.6 -5) (size 0.5 2) (layers F.Cu F.Paste F.Mask))
  (pad 14 smd rect (at 0.8 -5) (size 0.5 2) (layers F.Cu F.Paste F.Mask))
  (pad 15 smd rect (at 0 -5) (size 0.5 1.8) (layers F.Cu F.Paste F.Mask))
  (pad 16 smd rect (at -0.8 -5) (size 0.5 2) (layers F.Cu F.Paste F.Mask))
  (pad 17 smd rect (at -1.6 -5) (size 0.5 2) (layers F.Cu F.Paste F.Mask))
  (pad 18 smd rect (at -2.4 -5) (size 0.5 2) (layers F.Cu F.Paste F.Mask))
  (pad 19 smd rect (at -3.2 -5) (size 0.5 2) (layers F.Cu F.Paste F.Mask))
  (pad 20 smd rect (at -4 -5) (size 0.5 2) (layers F.Cu F.Paste F.Mask))
  (pad "" np_thru_hole circle (at -4.8 -0.9) (size 1.55 1.55) (drill 1.55) (layers *.Cu *.Mask F.SilkS))
  (pad "" np_thru_hole circle (at 4.8 -0.9) (size 1.55 1.55) (drill 1.55) (layers *.Cu *.Mask F.SilkS))
  (pad 1 smd rect (at -3.6 3.2) (size 0.5 2) (layers F.Cu F.Paste F.Mask))
  (pad 2 smd rect (at -2.8 3.2) (size 0.5 2) (layers F.Cu F.Paste F.Mask))
  (pad 3 smd rect (at -2 3.2) (size 0.5 2) (layers F.Cu F.Paste F.Mask))
  (pad 4 smd rect (at -1.2 3.2) (size 0.5 2) (layers F.Cu F.Paste F.Mask))
  (pad 5 smd rect (at -0.4 3.2) (size 0.5 2) (layers F.Cu F.Paste F.Mask))
  (pad 6 smd rect (at 0.4 3.2) (size 0.5 2) (layers F.Cu F.Paste F.Mask))
  (pad 7 smd rect (at 1.2 3.2) (size 0.5 2) (layers F.Cu F.Paste F.Mask))
  (pad 8 smd rect (at 2 3.2) (size 0.5 2) (layers F.Cu F.Paste F.Mask))
  (pad 9 smd rect (at 2.8 3.2) (size 0.5 2) (layers F.Cu F.Paste F.Mask))
  (pad 10 smd rect (at 3.6 3.2) (size 0.5 2) (layers F.Cu F.Paste F.Mask))
)
