(module ERNI-154807 (layer F.Cu) (tedit 5C7FC4B6)
  (fp_text reference J302 (at 18.9 0.05 -90) (layer F.SilkS)
    (effects (font (size 0.4 0.4) (thickness 0.1)))
  )
  (fp_text value ERNI-154807 (at 0 0) (layer F.Fab)
    (effects (font (size 0.4 0.4) (thickness 0.1)))
  )
  (fp_line (start -17.272 3.556) (end 17.228 3.556) (layer F.SilkS) (width 0.15))
  (fp_line (start -17.272 3.556) (end -17.272 -3.556) (layer F.SilkS) (width 0.15))
  (fp_line (start 17.272 3.556) (end 17.272 -3.556) (layer F.SilkS) (width 0.15))
  (fp_text user 1A (at 16.002 -1.524 180) (layer F.SilkS)
    (effects (font (size 0.4 0.4) (thickness 0.1)))
  )
  (fp_line (start 17.228 -3.556) (end -17.272 -3.556) (layer F.SilkS) (width 0.15))
  (fp_line (start -18.4 -3.8) (end -18.4 3.8) (layer F.CrtYd) (width 0.15))
  (fp_line (start -18.4 3.8) (end 18.3 3.8) (layer F.CrtYd) (width 0.15))
  (fp_line (start 18.3 3.8) (end 18.3 -3.8) (layer F.CrtYd) (width 0.15))
  (fp_line (start 18.3 -3.8) (end -18.4 -3.8) (layer F.CrtYd) (width 0.15))
  (pad 25B smd rect (at -15.24 2.75 180) (size 0.8 0.8) (layers F.Cu F.Paste F.Mask))
  (pad 25A smd rect (at -15.24 -2.75 180) (size 0.8 0.8) (layers F.Cu F.Paste F.Mask))
  (pad 24B smd rect (at -13.97 2.75 180) (size 0.8 0.8) (layers F.Cu F.Paste F.Mask))
  (pad 24A smd rect (at -13.97 -2.75 180) (size 0.8 0.8) (layers F.Cu F.Paste F.Mask))
  (pad 23B smd rect (at -12.7 2.75 180) (size 0.8 0.8) (layers F.Cu F.Paste F.Mask))
  (pad 23A smd rect (at -12.7 -2.745 180) (size 0.8 0.8) (layers F.Cu F.Paste F.Mask))
  (pad 22B smd rect (at -11.43 2.75 180) (size 0.8 0.8) (layers F.Cu F.Paste F.Mask))
  (pad 22A smd rect (at -11.43 -2.745 180) (size 0.8 0.8) (layers F.Cu F.Paste F.Mask))
  (pad 21B smd rect (at -10.16 2.75 180) (size 0.8 0.8) (layers F.Cu F.Paste F.Mask))
  (pad 21A smd rect (at -10.16 -2.745 180) (size 0.8 0.8) (layers F.Cu F.Paste F.Mask))
  (pad 20B smd rect (at -8.89 2.75 180) (size 0.8 0.8) (layers F.Cu F.Paste F.Mask))
  (pad 20A smd rect (at -8.89 -2.745 180) (size 0.8 0.8) (layers F.Cu F.Paste F.Mask))
  (pad 19B smd rect (at -7.62 2.75 180) (size 0.8 0.8) (layers F.Cu F.Paste F.Mask))
  (pad 19A smd rect (at -7.62 -2.745 180) (size 0.8 0.8) (layers F.Cu F.Paste F.Mask))
  (pad 18B smd rect (at -6.35 2.75 180) (size 0.8 0.8) (layers F.Cu F.Paste F.Mask))
  (pad 18A smd rect (at -6.35 -2.745 180) (size 0.8 0.8) (layers F.Cu F.Paste F.Mask))
  (pad 17B smd rect (at -5.08 2.75 180) (size 0.8 0.8) (layers F.Cu F.Paste F.Mask))
  (pad 17A smd rect (at -5.08 -2.745 180) (size 0.8 0.8) (layers F.Cu F.Paste F.Mask))
  (pad 16B smd rect (at -3.81 2.75 180) (size 0.8 0.8) (layers F.Cu F.Paste F.Mask))
  (pad 16A smd rect (at -3.81 -2.745 180) (size 0.8 0.8) (layers F.Cu F.Paste F.Mask))
  (pad 15B smd rect (at -2.54 2.75 180) (size 0.8 0.8) (layers F.Cu F.Paste F.Mask))
  (pad 15A smd rect (at -2.54 -2.745 180) (size 0.8 0.8) (layers F.Cu F.Paste F.Mask))
  (pad 14B smd rect (at -1.27 2.75 180) (size 0.8 0.8) (layers F.Cu F.Paste F.Mask))
  (pad 14A smd rect (at -1.27 -2.745 180) (size 0.8 0.8) (layers F.Cu F.Paste F.Mask))
  (pad 13B smd rect (at 0 2.75 180) (size 0.8 0.8) (layers F.Cu F.Paste F.Mask))
  (pad 13A smd rect (at 0 -2.745 180) (size 0.8 0.8) (layers F.Cu F.Paste F.Mask))
  (pad 12B smd rect (at 1.27 2.75 180) (size 0.8 0.8) (layers F.Cu F.Paste F.Mask))
  (pad 12A smd rect (at 1.27 -2.745 180) (size 0.8 0.8) (layers F.Cu F.Paste F.Mask))
  (pad 11B smd rect (at 2.54 2.75 180) (size 0.8 0.8) (layers F.Cu F.Paste F.Mask))
  (pad 11A smd rect (at 2.54 -2.745 180) (size 0.8 0.8) (layers F.Cu F.Paste F.Mask))
  (pad 10B smd rect (at 3.81 2.75 180) (size 0.8 0.8) (layers F.Cu F.Paste F.Mask))
  (pad 10A smd rect (at 3.81 -2.745 180) (size 0.8 0.8) (layers F.Cu F.Paste F.Mask))
  (pad 9B smd rect (at 5.08 2.75 180) (size 0.8 0.8) (layers F.Cu F.Paste F.Mask))
  (pad 9A smd rect (at 5.08 -2.745 180) (size 0.8 0.8) (layers F.Cu F.Paste F.Mask))
  (pad 8B smd rect (at 6.35 2.75 180) (size 0.8 0.8) (layers F.Cu F.Paste F.Mask))
  (pad 8A smd rect (at 6.35 -2.745 180) (size 0.8 0.8) (layers F.Cu F.Paste F.Mask))
  (pad 7B smd rect (at 7.62 2.75 180) (size 0.8 0.8) (layers F.Cu F.Paste F.Mask))
  (pad 7A smd rect (at 7.62 -2.745 180) (size 0.8 0.8) (layers F.Cu F.Paste F.Mask))
  (pad 6B smd rect (at 8.89 2.75 180) (size 0.8 0.8) (layers F.Cu F.Paste F.Mask))
  (pad 6A smd rect (at 8.89 -2.745 180) (size 0.8 0.8) (layers F.Cu F.Paste F.Mask))
  (pad 5B smd rect (at 10.16 2.75 180) (size 0.8 0.8) (layers F.Cu F.Paste F.Mask))
  (pad 5A smd rect (at 10.16 -2.745 180) (size 0.8 0.8) (layers F.Cu F.Paste F.Mask))
  (pad 4B smd rect (at 11.43 2.75 180) (size 0.8 0.8) (layers F.Cu F.Paste F.Mask))
  (pad 4A smd rect (at 11.43 -2.745 180) (size 0.8 0.8) (layers F.Cu F.Paste F.Mask))
  (pad 3B smd rect (at 12.7 2.75 180) (size 0.8 0.8) (layers F.Cu F.Paste F.Mask))
  (pad 3A smd rect (at 12.7 -2.745 180) (size 0.8 0.8) (layers F.Cu F.Paste F.Mask))
  (pad 2B smd rect (at 13.97 2.75 180) (size 0.8 0.8) (layers F.Cu F.Paste F.Mask))
  (pad 2A smd rect (at 13.97 -2.745 180) (size 0.8 0.8) (layers F.Cu F.Paste F.Mask))
  (pad 1B smd rect (at 15.24 2.75 180) (size 0.8 0.8) (layers F.Cu F.Paste F.Mask))
  (pad 4 smd rect (at -17.75 -2.45 180) (size 1.2 2.7) (layers F.Cu F.Paste F.Mask))
  (pad 3 smd rect (at 17.75 -2.45 180) (size 1.2 2.7) (layers F.Cu F.Paste F.Mask))
  (pad 2 smd rect (at -17.75 2.45 180) (size 1.2 2.7) (layers F.Cu F.Paste F.Mask))
  (pad 1 smd rect (at 17.75 2.45 180) (size 1.2 2.7) (layers F.Cu F.Paste F.Mask))
  (pad "" np_thru_hole circle (at -17.45 0 180) (size 1.6 1.6) (drill 1.6) (layers *.Cu *.Mask F.SilkS))
  (pad 1A smd rect (at 15.24 -2.745 180) (size 0.8 0.8) (layers F.Cu F.Paste F.Mask))
  (pad "" np_thru_hole circle (at 17.45 0 180) (size 1.6 1.6) (drill 1.6) (layers *.Cu *.Mask F.SilkS))
  (model /data/datasheets/Kicad/MDJ_3D/ERNI_154807.step
    (at (xyz 0 0 0))
    (scale (xyz 1 1 1))
    (rotate (xyz 0 0 0))
  )
)
