(module L_Wuerth_WE-DD-Typ-M-Typ-S (layer F.Cu) (tedit 5B991F09)
  (descr "Choke, Double, Doppeldrossel,  SMD, , Wuerth, WE-DD, Typ M, Typ S,")
  (tags "Choke Double Doppeldrossel SMD  Wuerth WE-DD TypM TypS ")
  (attr smd)
  (fp_text reference LC101 (at 0 -4.572) (layer F.SilkS)
    (effects (font (size 0.4 0.4) (thickness 0.1)))
  )
  (fp_text value 10uH (at 0 5.2) (layer F.Fab)
    (effects (font (size 0.4 0.4) (thickness 0.1)))
  )
  (fp_text user %R (at 0 0) (layer F.Fab)
    (effects (font (size 1 1) (thickness 0.15)))
  )
  (fp_line (start -1.9 4) (end -4 4) (layer F.SilkS) (width 0.12))
  (fp_line (start -4 4) (end -4 -4) (layer F.SilkS) (width 0.12))
  (fp_line (start -4 -4) (end -1.9 -4) (layer F.SilkS) (width 0.12))
  (fp_line (start 1.9 -4) (end 4 -4) (layer F.SilkS) (width 0.12))
  (fp_line (start 4 -4) (end 4 4) (layer F.SilkS) (width 0.12))
  (fp_line (start 4 4) (end 1.9 4) (layer F.SilkS) (width 0.12))
  (fp_line (start 4.2 4.2) (end -4.2 4.2) (layer F.CrtYd) (width 0.05))
  (fp_line (start -4.2 4.2) (end -4.2 -4.2) (layer F.CrtYd) (width 0.05))
  (fp_line (start -4.2 -4.2) (end 4.2 -4.2) (layer F.CrtYd) (width 0.05))
  (fp_line (start 4.2 -4.2) (end 4.2 4.2) (layer F.CrtYd) (width 0.05))
  (fp_line (start -1.85 -2.6) (end -2.1 -2.4) (layer F.Fab) (width 0.1))
  (fp_line (start -2.1 -2.4) (end -2.5 -2) (layer F.Fab) (width 0.1))
  (fp_line (start -2.5 -2) (end -2.75 -1.6) (layer F.Fab) (width 0.1))
  (fp_line (start -2.75 -1.6) (end -2.95 -1.2) (layer F.Fab) (width 0.1))
  (fp_line (start -2.95 -1.2) (end -3.1 -0.75) (layer F.Fab) (width 0.1))
  (fp_line (start -3.1 -0.75) (end -3.2 -0.15) (layer F.Fab) (width 0.1))
  (fp_line (start -3.2 -0.15) (end -3.2 0.35) (layer F.Fab) (width 0.1))
  (fp_line (start -3.2 0.35) (end -3.05 1) (layer F.Fab) (width 0.1))
  (fp_line (start -3.05 1) (end -2.75 1.65) (layer F.Fab) (width 0.1))
  (fp_line (start -2.75 1.65) (end -2.4 2.1) (layer F.Fab) (width 0.1))
  (fp_line (start -2.4 2.1) (end -1.95 2.55) (layer F.Fab) (width 0.1))
  (fp_line (start -1.95 2.55) (end -1.9 2.55) (layer F.Fab) (width 0.1))
  (fp_line (start 3.15 0.4) (end 3.1 0.8) (layer F.Fab) (width 0.1))
  (fp_line (start 3.1 0.8) (end 2.95 1.25) (layer F.Fab) (width 0.1))
  (fp_line (start 2.95 1.25) (end 2.65 1.8) (layer F.Fab) (width 0.1))
  (fp_line (start 2.65 1.8) (end 2.4 2.1) (layer F.Fab) (width 0.1))
  (fp_line (start 2.4 2.1) (end 2.15 2.35) (layer F.Fab) (width 0.1))
  (fp_line (start 2.15 2.35) (end 1.9 2.55) (layer F.Fab) (width 0.1))
  (fp_line (start 1.95 -2.55) (end 2.2 -2.3) (layer F.Fab) (width 0.1))
  (fp_line (start 2.2 -2.3) (end 2.55 -1.9) (layer F.Fab) (width 0.1))
  (fp_line (start 2.55 -1.9) (end 2.8 -1.5) (layer F.Fab) (width 0.1))
  (fp_line (start 2.8 -1.5) (end 3.05 -0.95) (layer F.Fab) (width 0.1))
  (fp_line (start 3.05 -0.95) (end 3.15 -0.5) (layer F.Fab) (width 0.1))
  (fp_line (start 3.15 -0.5) (end 3.2 -0.1) (layer F.Fab) (width 0.1))
  (fp_line (start 3.2 -0.1) (end 3.15 0.35) (layer F.Fab) (width 0.1))
  (fp_line (start -3.1 3.85) (end -1.9 3.85) (layer F.Fab) (width 0.1))
  (fp_line (start -3.85 -3.1) (end -3.85 3.1) (layer F.Fab) (width 0.1))
  (fp_line (start -3.85 3.1) (end -3.8 3.35) (layer F.Fab) (width 0.1))
  (fp_line (start -3.8 3.35) (end -3.65 3.6) (layer F.Fab) (width 0.1))
  (fp_line (start -3.65 3.6) (end -3.45 3.75) (layer F.Fab) (width 0.1))
  (fp_line (start -3.45 3.75) (end -3.2 3.85) (layer F.Fab) (width 0.1))
  (fp_line (start -3.2 3.85) (end -3.1 3.85) (layer F.Fab) (width 0.1))
  (fp_line (start -1.9 -3.85) (end -3.1 -3.85) (layer F.Fab) (width 0.1))
  (fp_line (start -3.1 -3.85) (end -3.35 -3.8) (layer F.Fab) (width 0.1))
  (fp_line (start -3.35 -3.8) (end -3.55 -3.7) (layer F.Fab) (width 0.1))
  (fp_line (start -3.55 -3.7) (end -3.75 -3.5) (layer F.Fab) (width 0.1))
  (fp_line (start -3.75 -3.5) (end -3.85 -3.3) (layer F.Fab) (width 0.1))
  (fp_line (start -3.85 -3.3) (end -3.85 -3.1) (layer F.Fab) (width 0.1))
  (fp_line (start 3.85 -3.1) (end 3.85 3.1) (layer F.Fab) (width 0.1))
  (fp_line (start 3.85 3.1) (end 3.8 3.3) (layer F.Fab) (width 0.1))
  (fp_line (start 3.8 3.3) (end 3.7 3.5) (layer F.Fab) (width 0.1))
  (fp_line (start 3.7 3.5) (end 3.55 3.65) (layer F.Fab) (width 0.1))
  (fp_line (start 3.55 3.65) (end 3.35 3.8) (layer F.Fab) (width 0.1))
  (fp_line (start 3.35 3.8) (end 3.1 3.85) (layer F.Fab) (width 0.1))
  (fp_line (start 3.1 3.85) (end 1.9 3.85) (layer F.Fab) (width 0.1))
  (fp_line (start 1.9 -3.85) (end 3.1 -3.85) (layer F.Fab) (width 0.1))
  (fp_line (start 3.1 -3.85) (end 3.3 -3.8) (layer F.Fab) (width 0.1))
  (fp_line (start 3.3 -3.8) (end 3.55 -3.65) (layer F.Fab) (width 0.1))
  (fp_line (start 3.55 -3.65) (end 3.7 -3.5) (layer F.Fab) (width 0.1))
  (fp_line (start 3.7 -3.5) (end 3.8 -3.3) (layer F.Fab) (width 0.1))
  (fp_line (start 3.8 -3.3) (end 3.85 -3.1) (layer F.Fab) (width 0.1))
  (fp_circle (center 0.8 0) (end 0.8 0) (layer F.Adhes) (width 0.3))
  (fp_circle (center 0 0) (end 1 -0.2) (layer F.Adhes) (width 0.3))
  (fp_circle (center 0 0) (end 0.8 -0.1) (layer F.Adhes) (width 0.3))
  (fp_circle (center 0 0) (end 0.6 0) (layer F.Adhes) (width 0.3))
  (fp_circle (center 0 0) (end 0.3 -0.1) (layer F.Adhes) (width 0.3))
  (fp_circle (center 0 0) (end 0.1 0) (layer F.Adhes) (width 0.3))
  (fp_circle (center 2 1) (end 2.15 0.9) (layer F.Fab) (width 0.1))
  (pad 3 smd rect (at -0.9 -2.65) (size 1 2.2) (layers F.Cu F.Paste F.Mask))
  (pad 2 smd rect (at 0.9 -2.65) (size 1 2.2) (layers F.Cu F.Paste F.Mask))
  (pad 4 smd rect (at -0.9 2.65) (size 1 2.2) (layers F.Cu F.Paste F.Mask))
  (pad 1 smd rect (at 0.9 2.65) (size 1 2.2) (layers F.Cu F.Paste F.Mask))
  (model ${KISYS3DMOD}/Inductor_SMD.3dshapes/L_Wuerth_WE-DD-Typ-M-Typ-S.wrl
    (at (xyz 0 0 0))
    (scale (xyz 1 1 1))
    (rotate (xyz 0 0 0))
  )
  (model :MDJ_3D:WE-DD-7332-rev1.stp
    (at (xyz 0 0 0))
    (scale (xyz 1 1 1))
    (rotate (xyz 0 0 180))
  )
)
