(module Molex-172310-1204 (layer F.Cu) (tedit 5D8A0767)
  (attr smd)
  (fp_text reference P101 (at -7.9 -1.6 -270) (layer F.SilkS)
    (effects (font (size 0.4 0.4) (thickness 0.1)))
  )
  (fp_text value PINS_1x4 (at 0 -0.5) (layer F.Fab) hide
    (effects (font (size 0.4 0.4) (thickness 0.1)))
  )
  (fp_line (start 7.5 -2.5) (end -7.5 -2.5) (layer F.Fab) (width 0.15))
  (fp_line (start 7.5 13.2) (end 7.5 -2.5) (layer F.Fab) (width 0.15))
  (fp_line (start -7.5 13.2) (end 7.5 13.2) (layer F.Fab) (width 0.15))
  (fp_line (start -7.5 -2.5) (end -7.5 13.2) (layer F.Fab) (width 0.15))
  (fp_line (start -7.5 13.16) (end 7.5 13.16) (layer F.SilkS) (width 0.15))
  (fp_line (start -7.5 -2.5) (end 7.5 -2.5) (layer F.SilkS) (width 0.15))
  (fp_line (start -7.5 -2.5) (end -7.5 13.16) (layer F.SilkS) (width 0.15))
  (fp_line (start 7.5 13.16) (end 7.5 -2.5) (layer F.SilkS) (width 0.15))
  (fp_line (start 7.5 -2.5) (end -7.5 -2.5) (layer F.CrtYd) (width 0.15))
  (fp_line (start -7.5 13.2) (end 7.5 13.2) (layer F.CrtYd) (width 0.15))
  (fp_line (start 7.5 13.2) (end 7.5 -2.5) (layer F.CrtYd) (width 0.15))
  (fp_line (start -7.5 -2.5) (end -7.5 13.2) (layer F.CrtYd) (width 0.15))
  (fp_text user PINS_1x4 (at 0 2.5) (layer F.Fab)
    (effects (font (size 0.8 0.8) (thickness 0.2)))
  )
  (pad "" np_thru_hole circle (at 3.5 7.91) (size 3.05 3.05) (drill 3.05) (layers *.Cu *.Mask F.SilkS))
  (pad "" np_thru_hole circle (at -3.5 7.91) (size 3.05 3.05) (drill 3.05) (layers *.Cu *.Mask F.SilkS))
  (pad 4 thru_hole circle (at 5.25 0) (size 1.524 1.524) (drill 1.05) (layers *.Cu *.Mask F.SilkS))
  (pad 3 thru_hole circle (at 1.75 0) (size 1.524 1.524) (drill 1.05) (layers *.Cu *.Mask F.SilkS))
  (pad 2 thru_hole circle (at -1.75 0) (size 1.524 1.524) (drill 1.05) (layers *.Cu *.Mask F.SilkS))
  (pad 1 thru_hole circle (at -5.25 0) (size 1.524 1.524) (drill 1.05) (layers *.Cu *.Mask F.SilkS))
  (model :MDJ_3D:1723101204.stp
    (offset (xyz 0 -5.08 2.54))
    (scale (xyz 1 1 1))
    (rotate (xyz -90 0 0))
  )
)
