(module PN_diode_S1227_16 (layer F.Cu) (tedit 5D5FB827)
  (descr https://www.hamamatsu.com/resources/pdf/ssd/s1227_series_kspd1036e.pdf)
  (tags "PN diode Hamamatsu S1227")
  (fp_text reference D101 (at -2.4 1.7) (layer F.SilkS)
    (effects (font (size 0.4 0.4) (thickness 0.1)))
  )
  (fp_text value D_Photo (at 4.3 -2) (layer F.Fab)
    (effects (font (size 0.4 0.4) (thickness 0.1)))
  )
  (fp_text user %R (at 2.65 -0.01) (layer F.Fab)
    (effects (font (size 0.4 0.4) (thickness 0.1)))
  )
  (fp_line (start -1.85 -1) (end 10.35 -1) (layer F.Fab) (width 0.1))
  (fp_line (start -1.85 -1) (end 10.35 -1) (layer F.SilkS) (width 0.12))
  (fp_line (start 10.35 -1) (end 10.35 1) (layer F.SilkS) (width 0.12))
  (fp_line (start -3.25 -1.35) (end 11.75 -1.35) (layer F.CrtYd) (width 0.05))
  (fp_line (start -3.25 -1.35) (end -3.25 1.35) (layer F.CrtYd) (width 0.05))
  (fp_line (start 11.75 1.35) (end 11.75 -1.35) (layer F.CrtYd) (width 0.05))
  (fp_line (start 11.75 1.35) (end -3.25 1.35) (layer F.CrtYd) (width 0.05))
  (fp_line (start -0.85 1) (end 10.35 1) (layer F.SilkS) (width 0.12))
  (fp_line (start -1.85 -1) (end -1.85 0) (layer F.SilkS) (width 0.12))
  (fp_line (start -0.85 1) (end 10.35 1) (layer F.Fab) (width 0.1))
  (fp_line (start 10.35 -1) (end 10.35 1) (layer F.Fab) (width 0.15))
  (fp_line (start -1.85 -1) (end -1.85 0) (layer F.Fab) (width 0.15))
  (fp_line (start -1.85 0) (end -0.85 1) (layer F.Fab) (width 0.15))
  (fp_line (start -1.85 0) (end -0.85 1) (layer F.SilkS) (width 0.15))
  (fp_text user A (at 9.6 0) (layer F.SilkS)
    (effects (font (size 0.4 0.4) (thickness 0.1)))
  )
  (fp_text user K (at -1 0) (layer F.SilkS)
    (effects (font (size 0.4 0.4) (thickness 0.1)))
  )
  (pad 1 thru_hole rect (at 0 0) (size 1 1) (drill 0.6) (layers *.Cu *.Mask))
  (pad 2 thru_hole circle (at 8.5 0) (size 1 1) (drill 0.6) (layers *.Cu *.Mask))
  (model ${KISYS3DMOD}/Sensor_Current.3dshapes/Diodes_SIP-3_AmmoPack.wrl
    (at (xyz 0 0 0))
    (scale (xyz 1 1 1))
    (rotate (xyz 0 0 0))
  )
  (model :MDJ_3D:S1227.stp
    (at (xyz 0 0 0))
    (scale (xyz 1 1 1))
    (rotate (xyz 0 0 0))
  )
)
