(module ProbePad_1x02_P5,08mm_Drill0.6mm (layer F.Cu) (tedit 5BACBB33)
  (descr "Wire solder connection")
  (tags connector)
  (attr virtual)
  (fp_text reference J103 (at -1.4605 0 270) (layer F.SilkS)
    (effects (font (size 0.4 0.4) (thickness 0.1)))
  )
  (fp_text value Conn_01x02 (at 2.55 1.35) (layer F.Fab)
    (effects (font (size 0.4 0.4) (thickness 0.1)))
  )
  (fp_text user %R (at 2.75 -0.7) (layer F.Fab)
    (effects (font (size 0.4 0.4) (thickness 0.1)))
  )
  (fp_line (start -1 -1) (end 6.08 -1) (layer F.CrtYd) (width 0.05))
  (fp_line (start -1 -1) (end -1 1) (layer F.CrtYd) (width 0.05))
  (fp_line (start 6.08 1) (end 6.08 -1) (layer F.CrtYd) (width 0.05))
  (fp_line (start 6.08 1) (end -1 1) (layer F.CrtYd) (width 0.05))
  (pad 1 thru_hole circle (at 0 0) (size 1 1) (drill 0.6) (layers *.Cu *.Mask))
  (pad 2 thru_hole circle (at 5.08 0) (size 1 1) (drill 0.6) (layers *.Cu *.Mask))
)
