(module QFN-32-1EP_5x5mm_Pitch0.5mm (layer F.Cu) (tedit 59CDD7BE)
  (descr "UH Package; 32-Lead Plastic QFN (5mm x 5mm); (see Linear Technology QFN_32_05-08-1693.pdf)")
  (tags "QFN 0.5")
  (attr smd)
  (fp_text reference U305 (at -3.4 -0.004 90) (layer F.SilkS)
    (effects (font (size 0.4 0.4) (thickness 0.1)))
  )
  (fp_text value AD9642 (at 0 3.75) (layer F.Fab)
    (effects (font (size 0.4 0.4) (thickness 0.1)))
  )
  (fp_text user %R (at 0 -3.429) (layer F.Fab)
    (effects (font (size 0.4 0.4) (thickness 0.1)))
  )
  (fp_line (start -1.5 -2.5) (end 2.5 -2.5) (layer F.Fab) (width 0.15))
  (fp_line (start 2.5 -2.5) (end 2.5 2.5) (layer F.Fab) (width 0.15))
  (fp_line (start 2.5 2.5) (end -2.5 2.5) (layer F.Fab) (width 0.15))
  (fp_line (start -2.5 2.5) (end -2.5 -1.5) (layer F.Fab) (width 0.15))
  (fp_line (start -2.5 -1.5) (end -1.5 -2.5) (layer F.Fab) (width 0.15))
  (fp_line (start -3 -3) (end -3 3) (layer F.CrtYd) (width 0.05))
  (fp_line (start 3 -3) (end 3 3) (layer F.CrtYd) (width 0.05))
  (fp_line (start -3 -3) (end 3 -3) (layer F.CrtYd) (width 0.05))
  (fp_line (start -3 3) (end 3 3) (layer F.CrtYd) (width 0.05))
  (fp_line (start 2.625 -2.625) (end 2.625 -2.1) (layer F.SilkS) (width 0.15))
  (fp_line (start -2.625 2.625) (end -2.625 2.1) (layer F.SilkS) (width 0.15))
  (fp_line (start 2.625 2.625) (end 2.625 2.1) (layer F.SilkS) (width 0.15))
  (fp_line (start -2.625 -2.625) (end -2.1 -2.625) (layer F.SilkS) (width 0.15))
  (fp_line (start -2.625 2.625) (end -2.1 2.625) (layer F.SilkS) (width 0.15))
  (fp_line (start 2.625 2.625) (end 2.1 2.625) (layer F.SilkS) (width 0.15))
  (fp_line (start 2.625 -2.625) (end 2.1 -2.625) (layer F.SilkS) (width 0.15))
  (pad 1 smd rect (at -2.4 -1.75) (size 0.7 0.25) (layers F.Cu F.Paste F.Mask))
  (pad 2 smd rect (at -2.4 -1.25) (size 0.7 0.25) (layers F.Cu F.Paste F.Mask))
  (pad 3 smd rect (at -2.4 -0.75) (size 0.7 0.25) (layers F.Cu F.Paste F.Mask))
  (pad 4 smd rect (at -2.4 -0.25) (size 0.7 0.25) (layers F.Cu F.Paste F.Mask))
  (pad 5 smd rect (at -2.4 0.25) (size 0.7 0.25) (layers F.Cu F.Paste F.Mask))
  (pad 6 smd rect (at -2.4 0.75) (size 0.7 0.25) (layers F.Cu F.Paste F.Mask))
  (pad 7 smd rect (at -2.4 1.25) (size 0.7 0.25) (layers F.Cu F.Paste F.Mask))
  (pad 8 smd rect (at -2.4 1.75) (size 0.7 0.25) (layers F.Cu F.Paste F.Mask))
  (pad 9 smd rect (at -1.75 2.4 90) (size 0.7 0.25) (layers F.Cu F.Paste F.Mask))
  (pad 10 smd rect (at -1.25 2.4 90) (size 0.7 0.25) (layers F.Cu F.Paste F.Mask))
  (pad 11 smd rect (at -0.75 2.4 90) (size 0.7 0.25) (layers F.Cu F.Paste F.Mask))
  (pad 12 smd rect (at -0.25 2.4 90) (size 0.7 0.25) (layers F.Cu F.Paste F.Mask))
  (pad 13 smd rect (at 0.25 2.4 90) (size 0.7 0.25) (layers F.Cu F.Paste F.Mask))
  (pad 14 smd rect (at 0.75 2.4 90) (size 0.7 0.25) (layers F.Cu F.Paste F.Mask))
  (pad 15 smd rect (at 1.25 2.4 90) (size 0.7 0.25) (layers F.Cu F.Paste F.Mask))
  (pad 16 smd rect (at 1.75 2.4 90) (size 0.7 0.25) (layers F.Cu F.Paste F.Mask))
  (pad 17 smd rect (at 2.4 1.75) (size 0.7 0.25) (layers F.Cu F.Paste F.Mask))
  (pad 18 smd rect (at 2.4 1.25) (size 0.7 0.25) (layers F.Cu F.Paste F.Mask))
  (pad 19 smd rect (at 2.4 0.75) (size 0.7 0.25) (layers F.Cu F.Paste F.Mask))
  (pad 20 smd rect (at 2.4 0.25) (size 0.7 0.25) (layers F.Cu F.Paste F.Mask))
  (pad 21 smd rect (at 2.4 -0.25) (size 0.7 0.25) (layers F.Cu F.Paste F.Mask))
  (pad 22 smd rect (at 2.4 -0.75) (size 0.7 0.25) (layers F.Cu F.Paste F.Mask))
  (pad 23 smd rect (at 2.4 -1.25) (size 0.7 0.25) (layers F.Cu F.Paste F.Mask))
  (pad 24 smd rect (at 2.4 -1.75) (size 0.7 0.25) (layers F.Cu F.Paste F.Mask))
  (pad 25 smd rect (at 1.75 -2.4 90) (size 0.7 0.25) (layers F.Cu F.Paste F.Mask))
  (pad 26 smd rect (at 1.25 -2.4 90) (size 0.7 0.25) (layers F.Cu F.Paste F.Mask))
  (pad 27 smd rect (at 0.75 -2.4 90) (size 0.7 0.25) (layers F.Cu F.Paste F.Mask))
  (pad 28 smd rect (at 0.25 -2.4 90) (size 0.7 0.25) (layers F.Cu F.Paste F.Mask))
  (pad 29 smd rect (at -0.25 -2.4 90) (size 0.7 0.25) (layers F.Cu F.Paste F.Mask))
  (pad 30 smd rect (at -0.75 -2.4 90) (size 0.7 0.25) (layers F.Cu F.Paste F.Mask))
  (pad 31 smd rect (at -1.25 -2.4 90) (size 0.7 0.25) (layers F.Cu F.Paste F.Mask))
  (pad 32 smd rect (at -1.75 -2.4 90) (size 0.7 0.25) (layers F.Cu F.Paste F.Mask))
  (pad 33 smd rect (at 0.8625 0.8625) (size 1.725 1.725) (layers F.Cu F.Paste F.Mask)
    (solder_paste_margin_ratio -0.2))
  (pad 33 smd rect (at 0.8625 -0.8625) (size 1.725 1.725) (layers F.Cu F.Paste F.Mask)
    (solder_paste_margin_ratio -0.2))
  (pad 33 smd rect (at -0.8625 0.8625) (size 1.725 1.725) (layers F.Cu F.Paste F.Mask)
    (solder_paste_margin_ratio -0.2))
  (pad 33 smd rect (at -0.8625 -0.8625) (size 1.725 1.725) (layers F.Cu F.Paste F.Mask)
    (solder_paste_margin_ratio -0.2))
  (model Housings_DFN_QFN.3dshapes/QFN-32-1EP_5x5mm_Pitch0.5mm.wrl
    (at (xyz 0 0 0))
    (scale (xyz 1 1 1))
    (rotate (xyz 0 0 0))
  )
)
