(module SFP_CAGE (layer F.Cu) (tedit 5C752610)
  (fp_text reference J501 (at 6.4 1.72) (layer F.SilkS)
    (effects (font (size 0.4 0.4) (thickness 0.1)))
  )
  (fp_text value SFP_CAGE (at 6.9 2.42) (layer F.SilkS)
    (effects (font (size 0.4 0.4) (thickness 0.1)))
  )
  (fp_circle (center 0.9 4.8) (end 1.675 4.8) (layer F.SilkS) (width 0.5))
  (fp_circle (center 0.9 -4.8) (end 1.675 -4.8) (layer F.SilkS) (width 0.5))
  (pad 2 thru_hole rect (at -30 1.45) (size 2 2) (drill 1.05) (layers *.Cu *.Mask F.SilkS))
  (pad 3 thru_hole rect (at -25 7.125) (size 2 2) (drill 1.05) (layers *.Cu *.Mask F.SilkS))
  (pad 5 thru_hole rect (at -15 7.125) (size 2 2) (drill 1.05) (layers *.Cu *.Mask F.SilkS))
  (pad 1 thru_hole rect (at -30 -7.125) (size 2 2) (drill 1.05) (layers *.Cu *.Mask F.SilkS))
  (pad 4 thru_hole rect (at -20 -7.125) (size 2 2) (drill 1.05) (layers *.Cu *.Mask F.SilkS))
  (pad 6 thru_hole rect (at -10 -7.125) (size 2 2) (drill 1.05) (layers *.Cu *.Mask F.SilkS))
  (pad 19 thru_hole circle (at 7.1 0) (size 2 2) (drill 1.05) (layers *.Cu *.Mask F.SilkS))
  (pad 18 thru_hole circle (at 7.1 -4.8) (size 2 2) (drill 1.05) (layers *.Cu *.Mask F.SilkS))
  (pad 20 thru_hole circle (at 7.1 4.8) (size 2 2) (drill 1.05) (layers *.Cu *.Mask F.SilkS))
  (pad 10 thru_hole rect (at -7.2 7.125) (size 2 2) (drill 1.05) (layers *.Cu *.Mask F.SilkS))
  (pad 13 thru_hole rect (at -2.5 7.125) (size 2 2) (drill 1.05) (layers *.Cu *.Mask F.SilkS))
  (pad 16 thru_hole rect (at 2.5 7.125) (size 2 2) (drill 1.05) (layers *.Cu *.Mask F.SilkS))
  (pad 11 thru_hole rect (at -5 7.125) (size 2 2) (drill 1.05) (layers *.Cu *.Mask F.SilkS))
  (pad 17 thru_hole rect (at 5 7.125) (size 2 2) (drill 1.05) (layers *.Cu *.Mask F.SilkS))
  (pad 8 thru_hole rect (at -10 3.95) (size 2 2) (drill 1.05) (layers *.Cu *.Mask F.SilkS))
  (pad 7 thru_hole rect (at -10 -1.45) (size 2 2) (drill 1.05) (layers *.Cu *.Mask F.SilkS))
  (pad 9 thru_hole rect (at -7.2 -7.125) (size 2 2) (drill 1.05) (layers *.Cu *.Mask F.SilkS))
  (pad 12 thru_hole rect (at -2.5 -7.125) (size 2 2) (drill 1.05) (layers *.Cu *.Mask F.SilkS))
  (pad 15 thru_hole rect (at 2.5 -7.125) (size 2 2) (drill 1.05) (layers *.Cu *.Mask F.SilkS))
  (pad 14 thru_hole rect (at 0 -7.135) (size 2 2) (drill 1.05) (layers *.Cu *.Mask F.SilkS))
)
