(module SolderWirePad_1x02_P3.81mm_Drill0.8mm (layer F.Cu) (tedit 5BAC9614)
  (descr "Wire solder connection")
  (tags connector)
  (attr virtual)
  (fp_text reference J303 (at 4.445 0 90) (layer F.SilkS)
    (effects (font (size 0.4 0.4) (thickness 0.1)))
  )
  (fp_text value Conn_01x02 (at 1.905 2.54) (layer F.Fab)
    (effects (font (size 0.4 0.4) (thickness 0.1)))
  )
  (fp_line (start 3.5 1) (end -1 1) (layer F.CrtYd) (width 0.05))
  (fp_line (start 3.5 1) (end 3.5 -1) (layer F.CrtYd) (width 0.05))
  (fp_line (start -1 -1) (end -1 1) (layer F.CrtYd) (width 0.05))
  (fp_line (start -1 -1) (end 3.5 -1) (layer F.CrtYd) (width 0.05))
  (fp_text user %R (at 1.21 -1.17) (layer F.Fab)
    (effects (font (size 0.4 0.4) (thickness 0.1)))
  )
  (pad 2 thru_hole circle (at 2.54 0) (size 1 1) (drill 0.6) (layers *.Cu *.Mask))
  (pad 1 thru_hole circle (at 0 0) (size 1 1) (drill 0.6) (layers *.Cu *.Mask))
)
